R Practicals for NST Part III Systems Biology - 4 Data manipulation and visualisation with tidyverse
…
Notice that the first line of the output shows the data structure used to store the data imported into: tibble. tibble is the main data structure used in tidyverse. You can look at tibble as the data.frame version of tidyverse. The first immediate difference from a data.frame is that a tibble displays the data type of each column under its name and it only prints as many columns as fit on one screen. Furthermore as mentioned before, the columns of class character are never converted into factor. Another difference is that printing a tibble will not print the whole dataset, but just the first 10 rows and only the columns that fit the screen (same as head but with 10 rows instead of 6). If you would like to print more than the first 10 rows use the print function.

#print the first 15 rows
print(surveys, n=15)

# A tibble: 34,786 × 13
   record…¹ month   day  year plot_id speci…² sex   hindf…³ weight genus species
      <dbl> <dbl> <dbl> <dbl>   <dbl> <chr>   <chr>   <dbl>  <dbl> <chr> <chr>  
 1        1     7    16  1977       2 NL      M          32     NA Neot… albigu…
 2       72     8    19  1977       2 NL      M          31     NA Neot… albigu…
 3      224     9    13  1977       2 NL      <NA>       NA     NA Neot… albigu…
 4      266    10    16  1977       2 NL      <NA>       NA     NA Neot… albigu…
 5      349    11    12  1977       2 NL      <NA>       NA     NA Neot… albigu…
 6      363    11    12  1977       2 NL      <NA>       NA     NA Neot… albigu…
 7      435    12    10  1977       2 NL      <NA>       NA     NA Neot… albigu…
 8      506     1     8  1978       2 NL      <NA>       NA     NA Neot… albigu…
 9      588     2    18  1978       2 NL      M          NA    218 Neot… albigu…
10      661     3    11  1978       2 NL      <NA>       NA     NA Neot… albigu…
11      748     4     8  1978       2 NL      <NA>       NA     NA Neot… albigu…
12      845     5     6  1978       2 NL      M          32    204 Neot… albigu…
13      990     6     9  1978       2 NL      M          NA    200 Neot… albigu…
14     1164     8     5  1978       2 NL      M          34    199 Neot… albigu…
15     1261     9     4  1978       2 NL      M          32    197 Neot… albigu…
# … with 34,771 more rows, 2 more variables: taxa <chr>, plot_type <chr>, and
#   abbreviated variable names ¹​record_id, ²​species_id, ³​hindfoot_length
…
#which values of the weight column are not missing?
!is.na(surveys$weight)

Now let us apply the is.na function in dplyr’s filter function to remove the rows that have weight or hindfoot_length as NA from the surveys tibble.

filter(surveys, 
  !is.na(weight) &  #remove rows that have weight as NA
  !is.na(hindfoot_length))  #remove rows that have hindfoot_length as NA

Another way to remove rows that have NA values is by using the drop_na function in the tidyr package. The code above can be replaced by the following code which gives the same answer:

drop_na(surveys, weight, hindfoot_length)

# A tibble: 30,738 × 13
   record…¹ month   day  year plot_id speci…² sex   hindf…³ weight genus species
      <dbl> <dbl> <dbl> <dbl>   <dbl> <chr>   <chr>   <dbl>  <dbl> <chr> <chr>  
 1      845     5     6  1978       2 NL      M          32    204 Neot… albigu…
 2     1164     8     5  1978       2 NL      M          34    199 Neot… albigu…
 3     1261     9     4  1978       2 NL      M          32    197 Neot… albigu…
 4     1756     4    29  1979       2 NL      M          33    166 Neot… albigu…
 5     1818     5    30  1979       2 NL      M          32    184 Neot… albigu…
 6     1882     7     4  1979       2 NL      M          32    206 Neot… albigu…
 7     2133    10    25  1979       2 NL      F          33    274 Neot… albigu…
 8     2184    11    17  1979       2 NL      F          30    186 Neot… albigu…
 9     2406     1    16  1980       2 NL      F          33    184 Neot… albigu…
10     3000     5    18  1980       2 NL      F          31     87 Neot… albigu…
# … with 30,728 more rows, 2 more variables: taxa <chr>, plot_type <chr>, and
#   abbreviated variable names ¹​record_id, ²​species_id, ³​hindfoot_length

Using drop_na() without specifying any columns will remove all the rows that have NA in any of the columns.

drop_na(surveys)

# A tibble: 30,676 × 13
   record…¹ month   day  year plot_id speci…² sex   hindf…³ weight genus species
      <dbl> <dbl> <dbl> <dbl>   <dbl> <chr>   <chr>   <dbl>  <dbl> <chr> <chr>  
 1      845     5     6  1978       2 NL      M          32    204 Neot… albigu…
 2     1164     8     5  1978       2 NL      M          34    199 Neot… albigu…
 3     1261     9     4  1978       2 NL      M          32    197 Neot… albigu…
 4     1756     4    29  1979       2 NL      M          33    166 Neot… albigu…
 5     1818     5    30  1979       2 NL      M          32    184 Neot… albigu…
 6     1882     7     4  1979       2 NL      M          32    206 Neot… albigu…
 7     2133    10    25  1979       2 NL      F          33    274 Neot… albigu…
 8     2184    11    17  1979       2 NL      F          30    186 Neot… albigu…
 9     2406     1    16  1980       2 NL      F          33    184 Neot… albigu…
10     3000     5    18  1980       2 NL      F          31     87 Neot… albigu…
# … with 30,666 more rows, 2 more variables: taxa <chr>, plot_type <chr>, and
#   abbreviated variable names ¹​record_id, ²​species_id, ³​hindfoot_length
…
Note

In the example above we did not specify the data argument in the ggplot function because the arguments in the ggplot function should be common throughout the whole plot. In this case we specified the respective data as separate layers in 2 different geom_point plots; the first plot is the data with all the animals in surveys_complete (points in black), the second plot is layered on top of the first plot which is a subset of the surveys_complete dataset (points in red).

4.6.4 Creating new columns

Frequently you’ll want to create new columns based on the values in existing columns, for example to do unit conversions, or to find the ratio of values in two columns. For this we’ll use the mutate function.

To create a new column of weight in kg:

surveys_complete %>%
  mutate(weight_kg = weight / 1000)

# A tibble: 30,676 × 14
   record…¹ month   day  year plot_id speci…² sex   hindf…³ weight genus species
      <dbl> <dbl> <dbl> <dbl>   <dbl> <chr>   <chr>   <dbl>  <dbl> <chr> <chr>  
 1      845     5     6  1978       2 NL      M          32    204 Neot… albigu…
 2     1164     8     5  1978       2 NL      M          34    199 Neot… albigu…
 3     1261     9     4  1978       2 NL      M          32    197 Neot… albigu…
 4     1756     4    29  1979       2 NL      M          33    166 Neot… albigu…
 5     1818     5    30  1979       2 NL      M          32    184 Neot… albigu…
 6     1882     7     4  1979       2 NL      M          32    206 Neot… albigu…
 7     2133    10    25  1979       2 NL      F          33    274 Neot… albigu…
 8     2184    11    17  1979       2 NL      F          30    186 Neot… albigu…
 9     2406     1    16  1980       2 NL      F          33    184 Neot… albigu…
10     3000     5    18  1980       2 NL      F          31     87 Neot… albigu…
# … with 30,666 more rows, 3 more variables: taxa <chr>, plot_type <chr>,
#   weight_kg <dbl>, and abbreviated variable names ¹​record_id, ²​species_id,
#   ³​hindfoot_length

You can also create a second new column based on the first new column within the same call of mutate():

surveys_complete %>%
  mutate(weight_kg = weight / 1000,
         weight_kg2 = weight_kg * 2)

# A tibble: 30,676 × 15
   record…¹ month   day  year plot_id speci…² sex   hindf…³ weight genus species
      <dbl> <dbl> <dbl> <dbl>   <dbl> <chr>   <chr>   <dbl>  <dbl> <chr> <chr>  
 1      845     5     6  1978       2 NL      M          32    204 Neot… albigu…
 2     1164     8     5  1978       2 NL      M          34    199 Neot… albigu…
 3     1261     9     4  1978       2 NL      M          32    197 Neot… albigu…
 4     1756     4    29  1979       2 NL      M          33    166 Neot… albigu…
 5     1818     5    30  1979       2 NL      M          32    184 Neot… albigu…
 6     1882     7     4  1979       2 NL      M          32    206 Neot… albigu…
 7     2133    10    25  1979       2 NL      F          33    274 Neot… albigu…
 8     2184    11    17  1979       2 NL      F          30    186 Neot… albigu…
 9     2406     1    16  1980       2 NL      F          33    184 Neot… albigu…
10     3000     5    18  1980       2 NL      F          31     87 Neot… albigu…
# … with 30,666 more rows, 4 more variables: taxa <chr>, plot_type <chr>,
#   weight_kg <dbl>, weight_kg2 <dbl>, and abbreviated variable names
#   ¹​record_id, ²​species_id, ³​hindfoot_length
…
